<?xml version="1.0" encoding="UTF-8"?>
<svg width="409px" height="97px" viewBox="0 0 409 97" version="1.1" xmlns="http://www.w3.org/2000/svg" xmlns:xlink="http://www.w3.org/1999/xlink">
    <!-- Generator: Sketch 52.2 (67145) - http://www.bohemiancoding.com/sketch -->
    <title>logo</title>
    <desc>Created with Sketch.</desc>
    <defs>
        <polygon id="path-1" points="0.116354439 0.358880216 228.955815 0.358880216 228.955815 28.8407687 0.116354439 28.8407687"></polygon>
        <polygon id="path-3" points="0 0.332165079 318.76685 0.332165079 318.76685 28.970867 0 28.970867"></polygon>
    </defs>
    <g id="Page-1" stroke="none" stroke-width="1" fill="none" fill-rule="evenodd">
        <g id="educational_reform_home_desktop" transform="translate(-199.000000, -200.000000)">
            <g id="logo" transform="translate(199.000000, 200.000000)">
                <g id="Group-3" transform="translate(3.000000, 68.000000)">
                    <mask id="mask-2" fill="white">
                        <use xlink:href="#path-1"></use>
                    </mask>
                    <g id="Clip-2"></g>
                    <path d="M0.116354439,28.4203886 L17.0591386,28.4203886 L17.0591386,23.2432248 L6.69364606,23.2432248 L6.69364606,16.8735011 L15.597026,16.8735011 L15.597026,11.6952522 L6.69364606,11.6952522 L6.69364606,5.83228503 L15.5549349,5.83228503 L17.1444286,0.655121198 L0.116354439,0.655121198 L0.116354439,28.4203886 Z M21.7091,28.4203886 L31.256031,28.4203886 C40.8516991,28.4203886 47.7280592,23.0750294 47.7280592,14.3049941 C47.7280592,5.87677543 41.8840393,0.655121198 31.9449962,0.655121198 L21.7091,0.655121198 L21.7091,28.4203886 Z M28.2863916,23.2432248 L28.2863916,5.83228503 L31.2981221,5.83228503 C37.4101961,5.83228503 40.7221028,9.12023439 40.7221028,14.5155097 C40.7221028,19.070893 38.011656,23.2432248 31.4288261,23.2432248 L28.2863916,23.2432248 Z M64.4648185,28.8414198 C69.7583309,28.8414198 73.712681,27.2842556 75.6898561,23.8324514 C76.5925999,22.273117 77.0666788,20.207026 77.0666788,17.8067145 L77.0666788,0.655121198 L70.4893872,0.655121198 L70.4893872,17.4280035 C70.4893872,18.8603775 70.1869957,20.1234709 69.6287345,21.0501734 C68.6407008,22.651828 66.8307826,23.4949754 64.4648185,23.4949754 C62.096639,23.4949754 60.2900438,22.651828 59.3020101,21.0501734 C58.7404259,20.1234709 58.4413574,18.8603775 58.4413574,17.4280035 L58.4413574,0.655121198 L51.8640658,0.655121198 L51.8640658,17.8067145 C51.8640658,20.207026 52.3381447,22.273117 53.2386732,23.8324514 C55.2180636,27.2842556 59.1724137,28.8414198 64.4648185,28.8414198 Z M104.037119,21.4299696 C101.92924,22.651828 99.8645596,23.4949754 96.8949202,23.4949754 C91.5626397,23.4949754 88.2064265,19.910785 88.2064265,14.7281956 C88.2064265,9.9633818 90.8736745,5.70640974 96.9824254,5.70640974 C99.650781,5.70640974 102.188433,6.33687132 104.554397,7.55981486 L104.554397,1.66429377 C102.575006,0.864551636 99.9952636,0.358880216 96.810738,0.358880216 C87.2183928,0.358880216 81.2004701,6.84362787 81.2004701,14.8117507 C81.2004701,22.948069 86.2724502,28.8414198 96.0796816,28.8414198 C99.0914122,28.8414198 102.36012,28.3379186 105.843714,26.4845135 L104.037119,21.4299696 Z M106.19152,28.4203886 L112.814226,28.4203886 L115.397291,21.8054252 L124.603063,21.8054252 L127.312402,28.4203886 L134.237499,28.4203886 L122.494076,0.528160777 L117.33016,0.528160777 L106.19152,28.4203886 Z M117.245978,16.6673261 L118.665999,12.8758756 C119.397055,10.9790652 119.783629,9.80061203 119.998515,8.87065408 L120.086021,8.87065408 C120.300907,9.75612163 120.644282,10.9378302 121.288941,12.8346406 L122.623672,16.6673261 L117.245978,16.6673261 Z M139.660608,28.4203886 L146.234576,28.4203886 L146.234576,5.83228503 L153.591661,5.83228503 L155.18337,0.655121198 L131.358688,0.655121198 L131.358688,5.83228503 L139.660608,5.83228503 L139.660608,28.4203886 Z M157.383185,28.4203886 L163.960477,28.4203886 L163.960477,0.655121198 L157.383185,0.655121198 L157.383185,28.4203886 Z M182.930281,28.8414198 C191.580006,28.8414198 197.553623,23.030539 197.553623,14.6012351 C197.553623,6.16867589 191.580006,0.358880216 182.930281,0.358880216 C174.283878,0.358880216 168.308047,6.16867589 168.308047,14.6012351 C168.308047,23.030539 174.283878,28.8414198 182.930281,28.8414198 Z M182.930281,23.4949754 C178.456438,23.4949754 175.314003,20.503267 175.314003,14.6012351 C175.314003,8.69920325 178.456438,5.70640974 182.930281,5.70640974 C187.405232,5.70640974 190.546559,8.69920325 190.546559,14.6012351 C190.546559,20.503267 187.405232,23.4949754 182.930281,23.4949754 Z M201.903408,28.4203886 L208.4807,28.4203886 L208.4807,14.3049941 C208.4807,13.126541 208.4807,11.2709656 208.351103,10.3453482 L208.435285,10.3453482 C209.384551,11.5682917 210.19979,12.6631897 211.102533,13.7982376 L222.852602,28.4203886 L228.955815,28.4203886 L228.955815,0.655121198 L222.378523,0.655121198 L222.378523,13.5063371 C222.378523,14.6012351 222.378523,16.6228357 222.466029,18.0552097 L222.378523,18.0552097 C221.563285,16.8767565 220.744723,15.8241787 219.840872,14.6847903 L208.4807,0.655121198 L201.903408,0.655121198 L201.903408,28.4203886 Z" id="Fill-1" fill="#FEFEFE" mask="url(#mask-2)"></path>
                </g>
                <path d="M216.308038,63.5713034 L222.888191,63.5713034 L222.888191,40.5719511 L230.247499,40.5719511 L231.841277,35.3005296 L208,35.3005296 L208,40.5719511 L216.308038,40.5719511 L216.308038,63.5713034 Z M234.041311,63.5713034 L240.621464,63.5713034 L240.621464,51.9876557 L253.152238,51.9876557 L253.152238,63.5713034 L259.731282,63.5713034 L259.731282,35.3005296 L253.152238,35.3005296 L253.152238,46.4157047 L240.621464,46.4157047 L240.621464,35.3005296 L234.041311,35.3005296 L234.041311,63.5713034 Z M265.159881,63.5713034 L271.74225,63.5713034 L271.74225,53.2328647 L273.637494,53.2328647 C274.281433,53.358822 275.230163,54.3885777 276.693158,57.1342249 L280.136738,63.5713034 L287.622396,63.5713034 L283.14807,55.5465006 C281.683966,52.8881396 280.396087,51.3877015 279.534915,50.8728236 L279.534915,50.7877472 C282.546247,49.8441727 284.955755,47.2708881 284.955755,43.6214425 C284.955755,40.4868747 283.621326,37.6572561 280.136738,36.2441041 C278.630518,35.6441498 276.7386,35.3005296 274.281433,35.3005296 L265.159881,35.3005296 L265.159881,63.5713034 Z M271.74225,47.9581285 L271.74225,40.5719511 L273.851401,40.5719511 C274.928697,40.5719511 275.574854,40.7432087 276.13456,41.0017526 C277.382539,41.6017069 278.117362,42.8502305 278.117362,44.2655923 C278.117362,45.7251495 277.427981,46.7968911 276.393909,47.40016 C275.747753,47.7437802 275.016256,47.9581285 273.809285,47.9581285 L271.74225,47.9581285 Z M303.595642,64 C312.248371,64 318.2267,58.0833238 318.2267,49.5016573 C318.2267,40.9144664 312.248371,35 303.595642,35 C294.939588,35 288.964583,40.9144664 288.964583,49.5016573 C288.964583,58.0833238 294.939588,64 303.595642,64 Z M303.595642,58.5573208 C299.115774,58.5573208 295.974768,55.5100392 295.974768,49.5016573 C295.974768,43.4910656 299.115774,40.4448889 303.595642,40.4448889 C308.072185,40.4448889 311.216516,43.4910656 311.216516,49.5016573 C311.216516,55.5100392 308.072185,58.5573208 303.595642,58.5573208 Z M334.971343,64 C340.26805,64 344.224787,62.4144855 346.205372,58.8998362 C347.109769,57.3121119 347.580809,55.2095097 347.580809,52.765497 L347.580809,35.3005296 L340.999548,35.3005296 L340.999548,52.3787861 C340.999548,53.8372385 340.700299,55.1244333 340.138376,56.0680078 C339.149746,57.6988227 337.34206,58.5573208 334.971343,58.5573208 C332.60506,58.5573208 330.794049,57.6988227 329.805419,56.0680078 C329.245713,55.1244333 328.944247,53.8372385 328.944247,52.3787861 L328.944247,35.3005296 L322.361878,35.3005296 L322.361878,52.765497 C322.361878,55.2095097 322.837351,57.3121119 323.741748,58.8998362 C325.7179,62.4144855 329.674636,64 334.971343,64 Z M378.098663,49.5856288 L371.517402,49.5856288 L371.517402,57.9573666 C370.527664,58.3429725 369.062452,58.5573208 367.469783,58.5573208 C361.828385,58.5573208 358.729496,54.9520707 358.729496,49.672915 C358.729496,44.2202918 362.000176,40.4448889 368.460629,40.4448889 C371.559519,40.4448889 374.140819,41.2591915 376.504885,42.3762335 L376.504885,36.3280756 C374.011144,35.513773 371.302386,35 367.94304,35 C358.08334,35 351.719311,41.4757496 351.719311,50.0154303 C351.719311,57.9993523 357.224384,64 367.125092,64 C371.087371,64 375.045215,63.1437117 378.098663,61.6432735 L378.098663,49.5856288 Z M383.310029,63.5713034 L389.89129,63.5713034 L389.89129,51.9876557 L402.422064,51.9876557 L402.422064,63.5713034 L409,63.5713034 L409,35.3005296 L402.422064,35.3005296 L402.422064,46.4157047 L389.89129,46.4157047 L389.89129,35.3005296 L383.310029,35.3005296 L383.310029,63.5713034 Z" id="Fill-4" fill="#FEFEFE"></path>
                <path d="M1,61.3427439 C3.4600039,63.0995161 6.95761342,64 10.3251052,64 C16.4150606,64 21.1626902,60.7427897 21.1626902,55.5089344 C21.1626902,46.4090753 9.07174878,47.0963158 9.07174878,42.7187488 C9.07174878,41.0006477 10.4552229,40.4426792 12.0533358,40.4426792 C14.3898946,40.4426792 16.7186687,41.1299196 19.3521629,42.4171143 L19.3521629,36.5435288 C17.6261565,35.6839258 14.9937744,35 11.8386971,35 C5.53187879,35 2.03760562,38.942241 2.03760562,43.2756125 C2.03760562,51.9876557 14.128547,51.3888063 14.128547,56.065798 C14.128547,57.913171 12.0110753,58.5551111 10.0670939,58.5551111 C7.56149322,58.5551111 5.40176104,57.6988227 3.50226436,56.4094182 L1,61.3427439 Z M39.1333968,64 C47.8168102,64 53.8144598,58.0855336 53.8144598,49.4983427 C53.8144598,40.9166762 47.8168102,35 39.1333968,35 C30.4510955,35 24.4512216,40.9166762 24.4512216,49.4983427 C24.4512216,58.0855336 30.4510955,64 39.1333968,64 Z M39.1333968,58.5551111 C34.6404421,58.5551111 31.4853648,55.5089344 31.4853648,49.4983427 C31.4853648,43.4899608 34.6404421,40.4426792 39.1333968,40.4426792 C43.6252393,40.4426792 46.7803167,43.4899608 46.7803167,49.4983427 C46.7803167,55.5089344 43.6252393,58.5551111 39.1333968,58.5551111 Z M80.0315176,56.4547186 C77.9140459,57.6988227 75.842171,58.5551111 72.860584,58.5551111 C67.5068504,58.5551111 64.1360223,54.9089801 64.1360223,49.6276146 C64.1360223,44.7793653 66.8151133,40.4426792 72.9484413,40.4426792 C75.624196,40.4426792 78.1720572,41.0879339 80.5508765,42.3331428 L80.5508765,36.3291805 C78.5635225,35.5126681 75.9700645,35 72.7760631,35 C63.1451256,35 57.1018791,41.6039166 57.1018791,49.7160056 C57.1018791,57.9982474 62.1953773,64 72.0420656,64 C75.0625767,64 78.3455475,63.4851221 81.8453813,61.5979731 L80.0315176,56.4547186 Z M85.3496635,63.5735132 L91.9534172,63.5735132 L91.9534172,35.3016345 L85.3496635,35.3016345 L85.3496635,63.5735132 Z M97.3983444,63.5735132 L114.409294,63.5735132 L114.409294,58.298777 L104.000986,58.298777 L104.000986,51.8130834 L112.941299,51.8130834 L112.941299,46.5416619 L104.000986,46.5416619 L104.000986,40.5719511 L112.897926,40.5719511 L114.497151,35.2994247 L97.3983444,35.2994247 L97.3983444,63.5735132 Z M124.607411,63.5735132 L131.207828,63.5735132 L131.207828,40.5719511 L138.594513,40.5719511 L140.192626,35.2994247 L116.270978,35.2994247 L116.270978,40.5719511 L124.607411,40.5719511 L124.607411,63.5735132 Z M142.401291,63.5735132 L149.005045,63.5735132 L149.005045,35.3016345 L142.401291,35.3016345 L142.401291,63.5735132 Z M154.44886,63.5735132 L171.460921,63.5735132 L171.460921,58.298777 L161.052613,58.298777 L161.052613,51.8130834 L169.992926,51.8130834 L169.992926,46.5416619 L161.052613,46.5416619 L161.052613,40.5719511 L169.949553,40.5719511 L171.548778,35.2994247 L154.44886,35.2994247 L154.44886,63.5735132 Z M174.833973,61.3427439 C177.293977,63.0995161 180.791587,64 184.157967,64 C190.25237,64 195,60.7427897 195,55.5089344 C195,46.4090753 182.905722,47.0963158 182.905722,42.7187488 C182.905722,41.0006477 184.289196,40.4426792 185.887309,40.4426792 C188.223868,40.4426792 190.552642,41.1299196 193.186136,42.4171143 L193.186136,36.5435288 C191.46013,35.6839258 188.826636,35 185.672671,35 C179.365852,35 175.871579,38.942241 175.871579,43.2756125 C175.871579,51.9876557 187.965857,51.3888063 187.965857,56.065798 C187.965857,57.913171 185.845049,58.5551111 183.899955,58.5551111 C181.394355,58.5551111 179.239071,57.6988227 177.339574,56.4094182 L174.833973,61.3427439 Z" id="Fill-6" fill="#00A4C2"></path>
                <g id="Group-10">
                    <mask id="mask-4" fill="white">
                        <use xlink:href="#path-3"></use>
                    </mask>
                    <g id="Clip-9"></g>
                    <path d="M8.31452071,28.5486025 L14.9001589,28.5486025 L14.9001589,5.83469771 L22.2656023,5.83469771 L23.8595996,0.630041623 L-0.000443701409,0.630041623 L-0.000443701409,5.83469771 L8.31452071,5.83469771 L8.31452071,28.5486025 Z M26.0625771,28.5486025 L32.6482152,28.5486025 L32.6482152,18.3378747 L34.546148,18.3378747 C35.1906243,18.4622627 36.1401453,19.4802803 37.60436,22.1917206 L41.0508107,28.5486025 L48.542709,28.5486025 L44.0646525,20.6226859 C42.6004378,17.9985354 41.3114852,16.5156995 40.448486,16.0072362 L40.448486,15.9232198 C43.4623278,14.9924919 45.873845,12.4512668 45.873845,8.84619683 C45.873845,5.75068125 44.539413,2.95631558 41.0508107,1.56076943 C39.5444444,0.968289712 37.6498394,0.630041623 35.1906243,0.630041623 L26.0625771,0.630041623 L26.0625771,28.5486025 Z M32.6482152,13.1288541 L32.6482152,5.83469771 L34.7602339,5.83469771 C35.8373191,5.83469771 36.4851232,6.00382175 37.0452962,6.26023563 C38.2943157,6.85271534 39.0297508,8.08459306 39.0297508,9.48341258 C39.0297508,10.9236948 38.3397951,11.9831751 37.3048615,12.5789282 C36.6581667,12.9182674 35.9260594,13.1288541 34.7180823,13.1288541 L32.6482152,13.1288541 Z M48.6758194,28.5486025 L55.3102647,28.5486025 L57.8937162,21.8960263 L67.1127222,21.8960263 L69.8270656,28.5486025 L76.7621186,28.5486025 L65.0018127,0.501289124 L59.8338006,0.501289124 L48.6758194,28.5486025 Z M59.7461695,16.7295596 L61.1671233,12.9182674 C61.9003399,11.0098935 62.2874694,9.82602516 62.5026645,8.89093286 L62.5902956,8.89093286 C62.8054908,9.78128912 63.1493594,10.9684308 63.7938357,12.8757136 L65.1315954,16.7295596 L59.7461695,16.7295596 Z M79.0493994,28.5486025 L85.632819,28.5486025 L85.632819,14.3552762 C85.632819,13.1703168 85.632819,11.3044966 85.5019271,10.3726777 L85.5906674,10.3726777 C86.5379699,11.6023732 87.356599,12.7033162 88.2617499,13.8457218 L100.025383,28.5486025 L106.13737,28.5486025 L106.13737,0.630041623 L99.5528415,0.630041623 L99.5528415,13.5511186 C99.5528415,14.6531527 99.5528415,16.6848235 99.638254,18.1261968 L99.5528415,18.1261968 C98.7331031,16.9412374 97.9166925,15.8817571 97.0082139,14.7360781 L85.632819,0.630041623 L79.0493994,0.630041623 L79.0493994,28.5486025 Z M110.278214,26.3456254 C112.732992,28.0837841 116.220485,28.970867 119.579305,28.970867 C125.654686,28.970867 130.390089,25.7531457 130.390089,20.5866789 C130.390089,11.5990998 118.330285,12.2777782 118.330285,7.95693169 C118.330285,6.26023563 119.709087,5.70921858 121.304194,5.70921858 C123.633626,5.70921858 125.957512,6.387897 128.583115,7.65905514 L128.583115,1.8553726 C126.862663,1.0108435 124.235951,0.332165079 121.088999,0.332165079 C114.799531,0.332165079 111.313147,4.22747372 111.313147,8.50685761 C111.313147,17.1114526 123.374061,16.5189728 123.374061,21.1376959 C123.374061,22.95878 121.262042,23.5959958 119.319739,23.5959958 C116.82281,23.5959958 114.668639,22.7481933 112.775143,21.4781263 L110.278214,26.3456254 Z M134.746128,28.5486025 L141.332875,28.5486025 L141.332875,16.937964 L150.161424,16.937964 L150.161424,11.7300346 L141.332875,11.7300346 L141.332875,5.83469771 L150.292316,5.83469771 L151.886313,0.630041623 L134.746128,0.630041623 L134.746128,28.5486025 Z M168.947742,28.970867 C177.606575,28.970867 183.590998,23.1289952 183.590998,14.6531527 C183.590998,6.17403692 177.606575,0.332165079 168.947742,0.332165079 C160.2878,0.332165079 154.303377,6.17403692 154.303377,14.6531527 C154.303377,23.1289952 160.2878,28.970867 168.947742,28.970867 Z M168.947742,23.5959958 C164.466358,23.5959958 161.320515,20.5866789 161.320515,14.6531527 C161.320515,8.71853545 164.466358,5.70921858 168.947742,5.70921858 C173.429126,5.70921858 176.574969,8.71853545 176.574969,14.6531527 C176.574969,20.5866789 173.429126,23.5959958 168.947742,23.5959958 Z M187.948145,28.5486025 L194.531565,28.5486025 L194.531565,18.3378747 L196.428389,18.3378747 C197.076193,18.4622627 198.025714,19.4802803 199.491038,22.1917206 L202.937488,28.5486025 L210.428277,28.5486025 L205.950221,20.6226859 C204.486006,17.9985354 203.193726,16.5156995 202.335164,16.0072362 L202.335164,15.9232198 C205.347896,14.9924919 207.759413,12.4512668 207.759413,8.84619683 C207.759413,5.75068125 206.424981,2.95631558 202.937488,1.56076943 C201.430013,0.968289712 199.533189,0.630041623 197.076193,0.630041623 L187.948145,0.630041623 L187.948145,28.5486025 Z M194.531565,13.1288541 L194.531565,5.83469771 L196.646912,5.83469771 C197.723997,5.83469771 198.370692,6.00382175 198.930865,6.26023563 C200.180993,6.85271534 200.913101,8.08459306 200.913101,9.48341258 C200.913101,10.9236948 200.223145,11.9831751 199.188211,12.5789282 C198.543735,12.9182674 197.8083,13.1288541 196.601432,13.1288541 L194.531565,13.1288541 Z M213.70834,28.5486025 L220.293978,28.5486025 L220.293978,14.1021357 C220.293978,13.3372586 220.293978,12.2363156 220.249608,11.3044966 L220.337239,11.3044966 C220.938454,12.363977 221.62841,13.2128705 222.234063,14.015937 L227.491924,21.1344226 L230.372656,21.1344226 L234.986041,14.2723509 C235.461911,13.5511186 236.626627,11.9002497 236.883974,11.3044966 L236.926125,11.3044966 C236.883974,12.1533902 236.883974,13.2957959 236.883974,14.3138135 L236.883974,28.5486025 L243.470721,28.5486025 L243.470721,0.630041623 L237.485189,0.630041623 L231.108091,10.162091 C230.246201,11.4747118 229.556245,12.6618535 229.041551,13.6765978 L228.95392,13.6765978 C228.309444,12.5756548 227.622816,11.5609105 226.759817,10.3726777 L219.647283,0.630041623 L213.70834,0.630041623 L213.70834,28.5486025 Z M248.901627,28.5486025 L255.487265,28.5486025 L255.487265,0.630041623 L248.901627,0.630041623 L248.901627,28.5486025 Z M260.921498,28.5486025 L267.506027,28.5486025 L267.506027,14.3552762 C267.506027,13.1703168 267.506027,11.3044966 267.378462,10.3726777 L267.463875,10.3726777 C268.410068,11.6023732 269.229807,12.7033162 270.134957,13.8457218 L281.897482,28.5486025 L288.012796,28.5486025 L288.012796,0.630041623 L281.426049,0.630041623 L281.426049,13.5511186 C281.426049,14.6531527 281.426049,16.6848235 281.511462,18.1261968 L281.426049,18.1261968 C280.606311,16.9412374 279.7899,15.8817571 278.884749,14.7360781 L267.506027,0.630041623 L260.921498,0.630041623 L260.921498,28.5486025 Z M318.76685,14.7360781 L312.18454,14.7360781 L312.18454,23.003516 C311.191758,23.3854091 309.727543,23.5959958 308.133546,23.5959958 C302.487446,23.5959958 299.382645,20.036753 299.382645,14.8222768 C299.382645,9.43867654 302.65938,5.70921858 309.121891,5.70921858 C312.226692,5.70921858 314.810143,6.51337613 317.176181,7.61759248 L317.176181,1.64478589 C314.68036,0.840628336 311.969345,0.332165079 308.607197,0.332165079 C298.738169,0.332165079 292.366617,6.72723621 292.366617,15.161616 C292.366617,23.0449787 297.876279,28.970867 307.787459,28.970867 C311.750822,28.970867 315.711966,28.1252468 318.76685,26.6435019 L318.76685,14.7360781 Z" id="Fill-8" fill="#00A5C1" mask="url(#mask-4)"></path>
                </g>
            </g>
        </g>
        <g id="Page"></g>
    </g>
</svg>